Cyclist Estudo de Caso
…
#Renomeando o nome das colunas de q1_2019
(q1_2019 <- rename(q1_2019, 
                   ride_id=trip_id,
                   started_at=start_time,
                   ended_at=end_time,
                   start_station_name=from_station_name,
                   end_station_name=to_station_name,
                   start_station_id=from_station_id,
                   end_station_id=to_station_id,
                   member_casual=usertype))

## # A tibble: 365,069 × 12
##     ride_id started_at         ended_at     bikeid tripduration start_station_id
##       <dbl> <chr>              <chr>         <dbl>        <dbl>            <dbl>
##  1 21742443 2019-01-01 0:04:37 2019-01-01 …   2167          390              199
##  2 21742444 2019-01-01 0:08:13 2019-01-01 …   4386          441               44
##  3 21742445 2019-01-01 0:13:23 2019-01-01 …   1524          829               15
##  4 21742446 2019-01-01 0:13:45 2019-01-01 …    252         1783              123
##  5 21742447 2019-01-01 0:14:52 2019-01-01 …   1170          364              173
##  6 21742448 2019-01-01 0:15:33 2019-01-01 …   2437          216               98
##  7 21742449 2019-01-01 0:16:06 2019-01-01 …   2708          177               98
##  8 21742450 2019-01-01 0:18:41 2019-01-01 …   2796          100              211
##  9 21742451 2019-01-01 0:18:43 2019-01-01 …   6205         1727              150
## 10 21742452 2019-01-01 0:19:18 2019-01-01 …   3939          336              268
## # ℹ 365,059 more rows
## # ℹ 6 more variables: start_station_name <chr>, end_station_id <dbl>,
## #   end_station_name <chr>, member_casual <chr>, gender <chr>, birthyear <dbl>
…
